{
  "authors": "Namirial S.p.A.",
  "default_subspecs": [
    "Core"
  ],
  "description": "SDK per firma digitale",
  "homepage": "http://www.firmagrafometrica.it/",
  "license": {
    "text": "Copyright 2017 Namiriral S.p.A.",
    "type": "Copyright"
  },
  "name": "NamirialDS",
  "platforms": {
    "ios": "9.0",
    "osx": "10.12"
  },
  "preserve_paths": [
  ],
  "source": {
    "git": "http://gitmicro.namirial.it/cocoapods/NamirialDS.git",
    "branch": "master",
    "tag": "1.0.0"
  },
  "summary": "NamirialDS SDK",
  "version": "1.0.0",
  "subspecs": [
    {
      "ios": {
        "dependencies": {
          "NamirialDSCore_iOS": "1.0.0"
        }
      },
      "osx": {
        "dependencies": {
          "NamirialDSCore_Mac": "1.0.0"
        }
      },
      "name": "Core",
      "preserve_paths": [
        "Core/Sources/module.modulemap"
      ],
      "source_files": [
        "Core/Sources/NamirialDS.h"
      ],
      "user_target_xcconfig": {
        "HEADER_SEARCH_PATHS": "$(inherited) ${PODS_ROOT}/NamirialDS/Core/Sources"
      }
    },
    {
      "dependencies": {
        "NamirialDS/Core": [

        ]
      },
      "ios": {
        "dependencies": {
            "NamirialDSGUI_iOS": "1.0.0"
        }
      },
      "osx": {
        "dependencies": {
            "NamirialDSGUI_Mac": "1.0.0"
        }
      },
      "name": "GUI"
    }
  ]
}
