{
  "name": "NamirialDSCore",
  "version": "1.1.0-beta4",
  "summary": "NamirialDS SDK",
  "description": "Framework Namirial",
  "homepage": "http://www.firmagrafometrica.it/",
  "license": {
    "type": "Commercial",
    "text": "Namirial S.p.A. Copyright 2016"
  },
  "authors": {
    "Namirial S.p.A.": "graphosign.support@namirial.com"
  },
  "dependencies": {
    "NamirialCore": "1.0.0"
  },
  "platforms": {
    "ios": "9.0",
    "osx": "10.9"
  },
  "source": {
    "http": "https://nexmicro.namirial.it/ios/frameworks/namirialdscore/1.1.0-beta4/NamirialDSCore.framework.zip"
  },
  "ios": {
    "vendored_frameworks": "Carthage/Build/iOS/NamirialDSCore.framework"
  },
  "osx": {
    "vendored_frameworks": "Carthage/Build/Mac/NamirialDSCore.framework"
  },
  "requires_arc": true
}
