{
  "authors": "Namirial S.p.A.",
  "default_subspecs": [
    "Core"
  ],
  "description": "SDK per firma digitale",
  "homepage": "http://www.firmagrafometrica.it/",
  "license": {
    "text": "Copyright 2017 Namiriral S.p.A.",
    "type": "Copyright"
  },
  "name": "NamirialDS",
  "platforms": {
    "ios": "9.0",
    "osx": "10.12"
  },
  "preserve_paths": [
  ],
  "source": {
    "git": "http://gitmicro.namirial.it/cocoapods/NamirialDS.git",
    "tag": "1.0.0"
  },
  "summary": "NamirialDS SDK",
  "version": "1.1.0-beta3",
  "subspecs": [
    {
      "dependencies": {
        "NamirialCore": "1.0.0-beta1",
        "NamirialDSCore": "1.1.0-beta3"
      },
      "name": "Core",
      "preserve_paths": [
        "Core/Sources/module.modulemap"
      ],
      "source_files": [
        "Core/Sources/NamirialDS.h"
      ],
      "user_target_xcconfig": {
        "HEADER_SEARCH_PATHS": "$(inherited) ${PODS_ROOT}/NamirialDS/Core/Sources"
      }
    },
    {
      "dependencies": {
        "NamirialDS/Core": [
        ],
        "NamirialDSGUI": "1.1.0-beta3"
      },
      "name": "GUI"
    }
  ]
}
